<?xml version="1.0" encoding="utf-8"?>
<!-- Generator: Adobe Illustrator 18.0.0, SVG Export Plug-In . SVG Version: 6.00 Build 0)  -->
<!DOCTYPE svg PUBLIC "-//W3C//DTD SVG 1.1//EN" "http://www.w3.org/Graphics/SVG/1.1/DTD/svg11.dtd">
<svg version="1.1" id="Layer_1" xmlns="http://www.w3.org/2000/svg" xmlns:xlink="http://www.w3.org/1999/xlink" x="0px" y="0px"
	 width="100px" height="100px" viewBox="0 0 100 100" enable-background="new 0 0 100 100" xml:space="preserve">
<path d="M58,35.1l-4.8,4.8c2.5,2.4,4,5.8,4,9.5c0,3.7-1.5,7.1-4,9.5l4.8,4.8c3.7-3.7,5.9-8.7,5.9-14.3C63.9,43.8,61.6,38.8,58,35.1z
	"/>
<path d="M77.3,49.4c0-9.3-3.8-17.7-9.9-23.8l-4.7,4.7c4.9,4.9,7.9,11.6,7.9,19.1c0,7.4-3,14.2-7.9,19.1l4.7,4.7
	C73.5,67.1,77.3,58.7,77.3,49.4z"/>
<path d="M90.7,49.4c0-13-5.3-24.8-13.8-33.3l-4.7,4.7C79.5,28.2,84,38.3,84,49.4c0,11.1-4.5,21.2-11.8,28.5l4.7,4.7
	C85.5,74.2,90.7,62.4,90.7,49.4z"/>
<polygon points="7.2,62.9 24.9,62.9 44.1,80.6 44.1,18.2 25.2,36 7.2,36 "/>
</svg>
