<?xml version="1.0" encoding="utf-8"?>
<!-- Generator: Adobe Illustrator 18.0.0, SVG Export Plug-In . SVG Version: 6.00 Build 0)  -->
<!DOCTYPE svg PUBLIC "-//W3C//DTD SVG 1.1//EN" "http://www.w3.org/Graphics/SVG/1.1/DTD/svg11.dtd">
<svg version="1.1" xmlns="http://www.w3.org/2000/svg" xmlns:xlink="http://www.w3.org/1999/xlink" x="0px" y="0px"
	 viewBox="0 0 369.6 366.1" enable-background="new 0 0 369.6 366.1" xml:space="preserve">
<g id="circles">
</g>
<g id="shadows">
</g>
<g id="icons">
	<g>
		<path fill="#EED3A9" d="M177.6,302c12.8,0,23.4-10.7,23.4-23.4v-23.7c0-12.8-10.7-23.4-23.4-23.4c-12.8,0-23.4,10.7-23.4,23.4
			v23.4C154.1,291.4,164.8,302,177.6,302z"/>
		<path fill="#EBCA96" d="M201,278.6v-11.9h-23.4v11.9V302C190.6,302,201,291.4,201,278.6L201,278.6z"/>
		<path fill="#F26D70" d="M142.6,278.6h-11.9c0,26.1,21.4,47.2,47.2,47.2c25.5,0,46.6-20.8,47.2-46v-1.5h-23.4l0,0
			c0,12.8-10.7,23.4-23.4,23.4l-23.4-23.4l0,0h-12.2V278.6z"/>
		<path fill="#E26465" d="M225,279.8v-1.5h-9.2h-14.2l-23.4,23.4v13.6v10.1l0,0C203.4,325.5,224.1,305.3,225,279.8z"/>
		<path fill="#FFE3BD" d="M177.6,42.6c-3.3,0-6.5,0-9.5,0.6v4.2c-1.8,34.1-23.7,63.8-56,75l-4.7,1.8v83.6c0,39.1,32,70.9,70.9,70.9
			s70.9-32,70.9-70.9v-94.6C248.4,74.3,216.7,42.6,177.6,42.6z"/>
		<path fill="#F0D49C" d="M248.4,113.1c0-39.1-32-70.9-70.9-70.9v236.1c39.1,0,70.9-32,70.9-70.9V113.1z"/>
		<g>
			<path d="M143.2,143.1c0-3.6-3-6.5-6.5-6.5s-6.5,3-6.5,6.5s3,6.5,6.5,6.5S143.2,146.6,143.2,143.1z"/>
			<circle fill="#FFFFFF" cx="134.9" cy="141" r="2.1"/>
			<path d="M225,143.1c0-3.6-3-6.5-6.5-6.5s-6.5,3-6.5,6.5s3,6.5,6.5,6.5S225,146.6,225,143.1z"/>
			<circle fill="#FFFFFF" cx="216.7" cy="141" r="2.1"/>
		</g>
		<path fill="#FFFFFF" d="M226.5,207.4h-97.9c1.8,25.2,23.1,45.1,48.6,45.1C203.4,253.1,224.7,233.2,226.5,207.4z"/>
		<path fill="#E1E1E1" d="M177.6,207.4v45.1c25.5,0,46.9-20.2,48.6-45.1H177.6z"/>
		<path fill="#1F2325" d="M177.6,28.6c-38,0-38,25.2-38,25.2C120,66.3,107,88.2,107,113.1v11l4.7-1.8c16.3-5.9,30.2-16.3,40-30.2
			c6.5,11.3,15.4,21.6,26.1,29.7L177.6,28.6L177.6,28.6z"/>
		<path d="M262.7,144.6v-31.1c0-46.6-38-85.1-85.1-85.1v93.4c19,14.5,43.3,22.8,69.7,22.8C247.8,144.6,262.7,144.6,262.7,144.6z"/>
	</g>
</g>
</svg>
